{
  "routes": [
    {
      "method": "GET",
      "path": "/plannedclasses",
      "handler": "Plannedclass.find",
      "config": {
        "policies": []
      }
    },
    {
      "method": "GET",
      "path": "/plannedclasses/count",
      "handler": "Plannedclass.count",
      "config": {
        "policies": []
      }
    },
    {
      "method": "GET",
      "path": "/plannedclasses/:_id",
      "handler": "Plannedclass.findOne",
      "config": {
        "policies": []
      }
    },
    {
      "method": "POST",
      "path": "/plannedclasses",
      "handler": "Plannedclass.create",
      "config": {
        "policies": []
      }
    },
    {
      "method": "PUT",
      "path": "/plannedclasses/:_id",
      "handler": "Plannedclass.update",
      "config": {
        "policies": []
      }
    },
    {
      "method": "DELETE",
      "path": "/plannedclasses/:_id",
      "handler": "Plannedclass.delete",
      "config": {
        "policies": []
      }
    }
  ]
}
